<svg width="37" height="32" viewBox="0 0 37 32" fill="none" xmlns="http://www.w3.org/2000/svg">
<path d="M31.2675 31H5.39087V1H19.8032L31.2675 11.6061V31Z" stroke="black"/>
<path d="M30.799 11H20.0171V1" stroke="black"/>
<rect y="13" width="36.6585" height="15" fill="#E21A1A"/>
<path d="M11.2558 17C11.8625 17 12.3891 17.1 12.8358 17.3C13.2891 17.5 13.6358 17.7867 13.8758 18.16C14.1158 18.5333 14.2358 18.9767 14.2358 19.49C14.2358 19.9967 14.1158 20.44 13.8758 20.82C13.6358 21.1933 13.2891 21.48 12.8358 21.68C12.3891 21.88 11.8625 21.98 11.2558 21.98H9.6758V24H8.3758V17H11.2558ZM11.1958 20.88C11.7625 20.88 12.1925 20.76 12.4858 20.52C12.7791 20.28 12.9258 19.9367 12.9258 19.49C12.9258 19.0433 12.7791 18.7 12.4858 18.46C12.1925 18.22 11.7625 18.1 11.1958 18.1H9.6758V20.88H11.1958ZM15.534 17H18.594C19.3407 17 20.004 17.1467 20.584 17.44C21.164 17.7267 21.614 18.1367 21.934 18.67C22.254 19.1967 22.414 19.8067 22.414 20.5C22.414 21.1933 22.254 21.8067 21.934 22.34C21.614 22.8667 21.164 23.2767 20.584 23.57C20.004 23.8567 19.3407 24 18.594 24H15.534V17ZM18.534 22.9C19.0473 22.9 19.4973 22.8033 19.884 22.61C20.2773 22.41 20.5773 22.13 20.784 21.77C20.9973 21.4033 21.104 20.98 21.104 20.5C21.104 20.02 20.9973 19.6 20.784 19.24C20.5773 18.8733 20.2773 18.5933 19.884 18.4C19.4973 18.2 19.0473 18.1 18.534 18.1H16.834V22.9H18.534ZM25.0957 18.09V20.22H28.4757V21.32H25.0957V24H23.7957V17H28.9057V18.09H25.0957Z" fill="white"/>
</svg>
