<svg width="34" height="32" viewBox="0 0 34 32" fill="none" xmlns="http://www.w3.org/2000/svg">
<path d="M29 31.0002H5V1.0002H18.3671L29 11.6063V31.0002Z" stroke="black"/>
<path d="M28.5654 11.0002H18.5654V1.0002" stroke="black"/>
<rect y="13.0002" width="34" height="15" fill="#E21A1A"/>
<path d="M9.92645 17.0002C10.5331 17.0002 11.0598 17.1002 11.5064 17.3002C11.9598 17.5002 12.3064 17.7869 12.5464 18.1602C12.7864 18.5335 12.9064 18.9769 12.9064 19.4902C12.9064 19.9969 12.7864 20.4402 12.5464 20.8202C12.3064 21.1935 11.9598 21.4802 11.5064 21.6802C11.0598 21.8802 10.5331 21.9802 9.92645 21.9802H8.34645V24.0002H7.04645V17.0002H9.92645ZM9.86645 20.8802C10.4331 20.8802 10.8631 20.7602 11.1564 20.5202C11.4498 20.2802 11.5964 19.9369 11.5964 19.4902C11.5964 19.0435 11.4498 18.7002 11.1564 18.4602C10.8631 18.2202 10.4331 18.1002 9.86645 18.1002H8.34645V20.8802H9.86645ZM14.2046 17.0002H17.2646C18.0113 17.0002 18.6746 17.1469 19.2546 17.4402C19.8346 17.7269 20.2846 18.1369 20.6046 18.6702C20.9246 19.1969 21.0846 19.8069 21.0846 20.5002C21.0846 21.1935 20.9246 21.8069 20.6046 22.3402C20.2846 22.8669 19.8346 23.2769 19.2546 23.5702C18.6746 23.8569 18.0113 24.0002 17.2646 24.0002H14.2046V17.0002ZM17.2046 22.9002C17.718 22.9002 18.168 22.8035 18.5546 22.6102C18.948 22.4102 19.248 22.1302 19.4546 21.7702C19.668 21.4035 19.7746 20.9802 19.7746 20.5002C19.7746 20.0202 19.668 19.6002 19.4546 19.2402C19.248 18.8735 18.948 18.5935 18.5546 18.4002C18.168 18.2002 17.718 18.1002 17.2046 18.1002H15.5046V22.9002H17.2046ZM23.7664 18.0902V20.2202H27.1464V21.3202H23.7664V24.0002H22.4664V17.0002H27.5764V18.0902H23.7664Z" fill="white"/>
</svg>
